{
  "page": 1,
  "total_results": 10000,
  "total_pages": 500,
  "results": [
    {
      "original_name": "Law & Order: Special Victims Unit",
      "genre_ids": [
        80,
        18
      ],
      "name": "Law & Order: Special Victims Unit",
      "popularity": 252.775,
      "origin_country": [
        "US"
      ],
      "vote_count": 1435,
      "first_air_date": "1999-09-20",
      "backdrop_path": "/cD9PxbrdWYgL7MUpD9eOYuiSe2P.jpg",
      "original_language": "en",
      "id": 2734,
      "vote_average": 7.3,
      "overview": "In the criminal justice system, sexually-based offenses are considered especially heinous. In New York City, the dedicated detectives who investigate these vicious felonies are members of an elite squad known as the Special Victims Unit. These are their stories.",
      "poster_path": "/6t6r1VGQTTQecN4V0sZeqsmdU9g.jpg"
    },
    {
      "original_name": "Friends",
      "id": 1668,
      "name": "Friends",
      "popularity": 236.187,
      "vote_count": 2810,
      "vote_average": 8.2,
      "first_air_date": "1994-09-22",
      "poster_path": "/f496cm9enuEsZkSPzCwnTESEK5s.jpg",
      "genre_ids": [
        35,
        18
      ],
      "original_language": "en",
      "backdrop_path": "/l0qVZIpXtIo7km9u5Yqh0nKPOr5.jpg",
      "overview": "The misadventures of a group of friends as they navigate the pitfalls of work, life and love in Manhattan.",
      "origin_country": [
        "US"
      ]
    },
    {
      "original_name": "Supernatural",
      "genre_ids": [
        18,
        9648,
        10765
      ],
      "name": "Supernatural",
      "popularity": 189.431,
      "origin_country": [
        "US"
      ],
      "vote_count": 3398,
      "first_air_date": "2005-09-13",
      "backdrop_path": "/nVRyd8hlg0ZLxBn9RaI7mUMQLnz.jpg",
      "original_language": "en",
      "id": 1622,
      "vote_average": 7.9,
      "overview": "When they were boys, Sam and Dean Winchester lost their mother to a mysterious and demonic supernatural force. Subsequently, their father raised them to be soldiers. He taught them about the paranormal evil that lives in the dark corners and on the back roads of America ... and he taught them how to kill it. Now, the Winchester brothers crisscross the country in their '67 Chevy Impala, battling every kind of supernatural threat they encounter along the way. ",
      "poster_path": "/KoYWXbnYuS3b0GyQPkbuexlVK9.jpg"
    },
    {
      "original_name": "The Simpsons",
      "genre_ids": [
        16,
        35
      ],
      "name": "The Simpsons",
      "popularity": 190.09,
      "origin_country": [
        "US"
      ],
      "vote_count": 4133,
      "first_air_date": "1989-12-17",
      "backdrop_path": "/adZ9ldSlkGfLfsHNbh37ZThCcgU.jpg",
      "original_language": "en",
      "id": 456,
      "vote_average": 7.6,
      "overview": "Set in Springfield, the average American town, the show focuses on the antics and everyday adventures of the Simpson family; Homer, Marge, Bart, Lisa and Maggie, as well as a virtual cast of thousands. Since the beginning, the series has been a pop culture icon, attracting hundreds of celebrities to guest star. The show has also made name for itself in its fearless satirical take on politics, media and American life in general.",
      "poster_path": "/qcr9bBY6MVeLzriKCmJOv1562uY.jpg"
    },
    {
      "original_name": "Grey's Anatomy",
      "genre_ids": [
        18
      ],
      "name": "Grey's Anatomy",
      "popularity": 188.807,
      "origin_country": [
        "US"
      ],
      "vote_count": 3000,
      "first_air_date": "2005-03-27",
      "backdrop_path": "/edmk8xjGBsYVIf4QtLY9WMaMcXZ.jpg",
      "original_language": "en",
      "id": 1416,
      "vote_average": 7.8,
      "overview": "Follows the personal and professional lives of a group of doctors at Seattle’s Grey Sloan Memorial Hospital.",
      "poster_path": "/jnsvc7gCKocXnrTXF6p03cICTWb.jpg"
    },
    {
      "original_name": "Family Guy",
      "genre_ids": [
        16,
        35
      ],
      "name": "Family Guy",
      "popularity": 181.312,
      "origin_country": [
        "US"
      ],
      "vote_count": 2199,
      "first_air_date": "1999-01-31",
      "backdrop_path": "/4oE4vT4q0AD2cX3wcMBVzCsME8G.jpg",
      "original_language": "en",
      "id": 1434,
      "vote_average": 6.7,
      "overview": "Sick, twisted, politically incorrect and Freakin' Sweet animated series featuring the adventures of the dysfunctional Griffin family. Bumbling Peter and long-suffering Lois have three kids. Stewie (a brilliant but sadistic baby bent on killing his mother and taking over the world), Meg (the oldest, and is the most unpopular girl in town) and Chris (the middle kid, he's not very bright but has a passion for movies). The final member of the family is Brian - a talking dog and much more than a pet, he keeps Stewie in check whilst sipping Martinis and sorting through his own life issues.",
      "poster_path": "/q3E71oY6qgAEiw6YZIHDlHSLwer.jpg"
    },
    {
      "original_name": "The Flash",
      "genre_ids": [
        18,
        10765
      ],
      "name": "The Flash",
      "popularity": 186.062,
      "origin_country": [
        "US"
      ],
      "vote_count": 5160,
      "first_air_date": "2014-10-07",
      "backdrop_path": "/jC1KqsFx8ZyqJyQa2Ohi7xgL7XC.jpg",
      "original_language": "en",
      "id": 60735,
      "vote_average": 7.4,
      "overview": "After a particle accelerator causes a freak storm, CSI Investigator Barry Allen is struck by lightning and falls into a coma. Months later he awakens with the power of super speed, granting him the ability to move through Central City like an unseen guardian angel. Though initially excited by his newfound powers, Barry is shocked to discover he is not the only \"meta-human\" who was created in the wake of the accelerator explosion -- and not everyone is using their new powers for good. Barry partners with S.T.A.R. Labs and dedicates his life to protect the innocent. For now, only a few close friends and associates know that Barry is literally the fastest man alive, but it won't be long before the world learns what Barry Allen has become...The Flash.",
      "poster_path": "/wHa6KOJAoNTFLFtp7wguUJKSnju.jpg"
    },
    {
      "original_name": "ドラゴンボールゼット",
      "id": 12971,
      "name": "Dragon Ball Z",
      "popularity": 153.929,
      "vote_count": 1115,
      "vote_average": 8.1,
      "first_air_date": "1989-04-26",
      "poster_path": "/dBsDWUcdfbuZwglgyeeQ9ChRoS4.jpg",
      "genre_ids": [
        10765,
        16,
        35,
        10759
      ],
      "original_language": "ja",
      "backdrop_path": "/ydf1CeiBLfdxiyNTpskM0802TKl.jpg",
      "overview": "Five years have passed since the fight with Piccolo Jr., and Goku now has a son, Gohan. The peace is interrupted when an alien named Raditz arrives on Earth in a spacecraft and tracks down Goku, revealing to him that that they are members of a near-extinct warrior race called the Saiyans.",
      "origin_country": [
        "JP"
      ]
    },
    {
      "original_name": "ポケモン",
      "id": 60572,
      "name": "Pokémon",
      "popularity": 183.924,
      "vote_count": 361,
      "vote_average": 6.8,
      "first_air_date": "1997-04-01",
      "poster_path": "/rOuGm07PxBhEsK9TaGPRQVJQm1X.jpg",
      "genre_ids": [
        16,
        10759,
        10765,
        10762
      ],
      "original_language": "ja",
      "backdrop_path": "/tvjCdVRkaaab2ezM9BctkAOXeyW.jpg",
      "overview": "Join Ash Ketchum, accompanied by his partner Pikachu, as he travels through many regions, meets new friends and faces new challenges on his quest to become a Pokémon Master.",
      "origin_country": [
        "JP"
      ]
    },
    {
      "original_name": "NCIS",
      "genre_ids": [
        80,
        18,
        10759
      ],
      "name": "NCIS",
      "popularity": 157.092,
      "origin_country": [
        "US"
      ],
      "vote_count": 1059,
      "first_air_date": "2003-09-23",
      "backdrop_path": "/4VuCtYBvZGq6Rk3gloigwlsTefE.jpg",
      "original_language": "en",
      "id": 4614,
      "vote_average": 7,
      "overview": "From murder and espionage to terrorism and stolen submarines, a team of special agents investigates any crime that has a shred of evidence connected to Navy and Marine Corps personnel, regardless of rank or position.",
      "poster_path": "/fi8EvaWtL5CvoielOjjVvTr7ux3.jpg"
    },
    {
      "original_name": "Marvel's Agents of S.H.I.E.L.D.",
      "genre_ids": [
        18,
        10759,
        10765
      ],
      "name": "Marvel's Agents of S.H.I.E.L.D.",
      "popularity": 169.6,
      "origin_country": [
        "US"
      ],
      "vote_count": 1895,
      "first_air_date": "2013-09-24",
      "backdrop_path": "/mUCV0W6TaAk8UWA5yAmqCywC63F.jpg",
      "original_language": "en",
      "id": 1403,
      "vote_average": 7.2,
      "overview": "Agent Phil Coulson of S.H.I.E.L.D. (Strategic Homeland Intervention, Enforcement and Logistics Division) puts together a team of agents to investigate the new, the strange and the unknown around the globe, protecting the ordinary from the extraordinary.",
      "poster_path": "/gHUCCMy1vvj58tzE3dZqeC9SXus.jpg"
    },
    {
      "original_name": "Breaking Bad",
      "genre_ids": [
        18
      ],
      "name": "Breaking Bad",
      "popularity": 138.934,
      "origin_country": [
        "US"
      ],
      "vote_count": 5162,
      "first_air_date": "2008-01-20",
      "backdrop_path": "/tsRy63Mu5cu8etL1X7ZLyf7UP1M.jpg",
      "original_language": "en",
      "id": 1396,
      "vote_average": 8.6,
      "overview": "When Walter White, a New Mexico chemistry teacher, is diagnosed with Stage III cancer and given a prognosis of only two years left to live. He becomes filled with a sense of fearlessness and an unrelenting desire to secure his family's financial future at any cost as he enters the dangerous world of drugs and crime.",
      "poster_path": "/ggFHVNu6YYI5L9pCfOacjizRGt.jpg"
    },
    {
      "original_name": "Criminal Minds",
      "genre_ids": [
        80,
        18,
        9648
      ],
      "name": "Criminal Minds",
      "popularity": 155.641,
      "origin_country": [
        "US"
      ],
      "vote_count": 1353,
      "first_air_date": "2005-09-22",
      "backdrop_path": "/nWw20ipGipwdOyLTkFfX2Uz4Grp.jpg",
      "original_language": "en",
      "id": 4057,
      "vote_average": 7.9,
      "overview": "An elite team of FBI profilers analyze the country's most twisted criminal minds, anticipating their next moves before they strike again. The Behavioral Analysis Unit's most experienced agent is David Rossi, a founding member of the BAU who returns to help the team solve new cases.",
      "poster_path": "/7TCwgX7oQKxcWYEhSPRmaHe6ULN.jpg"
    },
    {
      "original_name": "American Dad!",
      "genre_ids": [
        16,
        35
      ],
      "name": "American Dad!",
      "popularity": 146.563,
      "origin_country": [
        "US"
      ],
      "vote_count": 969,
      "first_air_date": "2005-02-06",
      "backdrop_path": "/2OeS0YPFpqCmi7SA5W6aOPIChc3.jpg",
      "original_language": "en",
      "id": 1433,
      "vote_average": 6.4,
      "overview": "The series focuses on an eccentric motley crew that is the Smith family and their three housemates: Father, husband, and breadwinner Stan Smith; his better half housewife, Francine Smith; their college-aged daughter, Hayley Smith; and their high-school-aged son, Steve Smith. Outside of the Smith family, there are three additional main characters, including Hayley's boyfriend turned husband, Jeff Fischer; the family's man-in-a-goldfish-body pet, Klaus; and most notably the family's zany alien, Roger, who is \"full of masquerades, brazenness, and shocking antics.\"",
      "poster_path": "/1aklTBd36LFiFNroOSiherLvLdu.jpg"
    },
    {
      "original_name": "仮面ライダ",
      "genre_ids": [
        18,
        10759,
        10765
      ],
      "name": "Kamen Rider",
      "popularity": 135.219,
      "origin_country": [
        "JP"
      ],
      "vote_count": 40,
      "first_air_date": "1971-04-03",
      "backdrop_path": "/73vNiJs4j33A8Oieu0DhSnPTJj8.jpg",
      "original_language": "ja",
      "id": 2661,
      "vote_average": 5.3,
      "overview": "A Japanese anthology series centered around a man who transforms into a bug-themed superhero.",
      "poster_path": "/o57T19zgZakEpre3d9ddy1UZonp.jpg"
    },
    {
      "original_name": "Doctor Who",
      "genre_ids": [
        18,
        10759,
        10765
      ],
      "name": "Doctor Who",
      "popularity": 141.441,
      "origin_country": [
        "GB"
      ],
      "vote_count": 1725,
      "first_air_date": "2005-03-26",
      "backdrop_path": "/nfH8SZJVOxcBlFaqqtoqS5hHizG.jpg",
      "original_language": "en",
      "id": 57243,
      "vote_average": 7,
      "overview": "The Doctor is a Time Lord: a 900 year old alien with 2 hearts, part of a gifted civilization who mastered time travel. The Doctor saves planets for a living—more of a hobby actually, and the Doctor's very, very good at it.",
      "poster_path": "/cDDb7WA2i7cENhkEEjXEDrXGyNL.jpg"
    },
    {
      "original_name": "Game of Thrones",
      "genre_ids": [
        18,
        10765
      ],
      "name": "Game of Thrones",
      "popularity": 141.052,
      "origin_country": [
        "US"
      ],
      "vote_count": 9402,
      "first_air_date": "2011-04-17",
      "backdrop_path": "/suopoADq0k8YZr4dQXcU6pToj6s.jpg",
      "original_language": "en",
      "id": 1399,
      "vote_average": 8.3,
      "overview": "Seven noble families fight for control of the mythical land of Westeros. Friction between the houses leads to full-scale war. All while a very ancient evil awakens in the farthest north. Amidst the war, a neglected military order of misfits, the Night's Watch, is all that stands between the realms of men and icy horrors beyond.",
      "poster_path": "/u3bZgnGQ9T01sWNhyveQz0wH0Hl.jpg"
    },
    {
      "original_name": "Lucifer",
      "genre_ids": [
        80,
        10765
      ],
      "name": "Lucifer",
      "popularity": 138.18,
      "origin_country": [
        "US"
      ],
      "vote_count": 3095,
      "first_air_date": "2016-01-25",
      "backdrop_path": "/vauFEN12Exuck3nO9WWmjB1R5cJ.jpg",
      "original_language": "en",
      "id": 63174,
      "vote_average": 8.3,
      "overview": "Bored and unhappy as the Lord of Hell, Lucifer Morningstar abandoned his throne and retired to Los Angeles, where he has teamed up with LAPD detective Chloe Decker to take down criminals. But the longer he's away from the underworld, the greater the threat that the worst of humanity could escape.",
      "poster_path": "/4EYPN5mVIhKLfxGruy7Dy41dTVn.jpg"
    },
    {
      "original_name": "ナルト",
      "genre_ids": [
        16,
        35,
        18,
        10759
      ],
      "name": "Naruto",
      "popularity": 146.657,
      "origin_country": [
        "JP"
      ],
      "vote_count": 1458,
      "first_air_date": "2002-10-03",
      "backdrop_path": "/6sHC954QPhrrLsT6WPkSie9hVmI.jpg",
      "original_language": "ja",
      "id": 46260,
      "vote_average": 8.4,
      "overview": "In another world, ninja are the ultimate power, and in the Village Hidden in the Leaves live the stealthiest ninja in the land. Twelve years earlier, the fearsome Nine-Tailed Fox terrorized the village and claimed many lives before it was subdued and its spirit sealed within the body of a baby boy. That boy, Naruto Uzumaki, has grown up to become a ninja-in-training who's more interested in pranks than in studying ninjutsu.. but Naruto is determined to become the greatest ninja ever!",
      "poster_path": "/rgHWkZVyvxMBOSYgj585pIx6qAn.jpg"
    },
    {
      "original_name": "Law & Order",
      "genre_ids": [
        80,
        18,
        9648
      ],
      "name": "Law & Order",
      "popularity": 121.55,
      "origin_country": [
        "US"
      ],
      "vote_count": 252,
      "first_air_date": "1990-09-13",
      "backdrop_path": "/A4kt2TAsV8bq0csfwJbfgiZtG4g.jpg",
      "original_language": "en",
      "id": 549,
      "vote_average": 7.5,
      "overview": "Follows a crime (usually a murder), usually adapted from current headlines, from two separate vantage points, the police investigation and the prosecution in court.",
      "poster_path": "/1J8QWZM7DQxJ2b7vYK3munMK5rh.jpg"
    }
  ]
}